test.vcd
$version Generated by VerilatedVcd $end
$date Sun May 24 23:25:51 2020
 $end
$timescale   1ns $end

 $scope module TOP $end
  $var wire  1 s busy $end
  $var wire  1 [ clk $end
  $var wire  8 k data [7:0] $end
  $var wire  1 S resetn $end
  $var wire  1 { tx $end
  $var wire  1 c write $end
  $scope module uart_tx $end
   $var wire 32 -! BAUD_RATE [31:0] $end
   $var wire 32 %! CLOCK_HZ [31:0] $end
   $var wire  1 ; baud_resetn $end
   $var wire  3 # bit_count [2:0] $end
   $var wire  8 K buffer [7:0] $end
   $var wire  1 s busy $end
   $var wire  1 [ clk $end
   $var wire  8 k data [7:0] $end
   $var wire  1 S resetn $end
   $var wire  2 C state [1:0] $end
   $var wire  1 + tick $end
   $var wire  1 { tx $end
   $var wire  1 c write $end
   $scope module baud $end
    $var wire 32 -! BAUD_RATE [31:0] $end
    $var wire 32 %! CLOCK_HZ [31:0] $end
    $var wire  1 [ clk $end
    $var wire 16 3 clock_count [15:0] $end
    $var wire 16 =! clocks_per_baud [15:0] $end
    $var wire  1 5! half $end
    $var wire  1 ; resetn $end
    $var wire  1 + tick $end
   $upscope $end
  $upscope $end
 $upscope $end
$enddefinitions $end


#0
b000 #
0+
b0000000000000000 3
0;
b00 C
b00000000 K
0S
0[
0c
b00000000 k
0s
0{
b00000000000000000000000000001010 %!
b00000000000000000000000000000001 -!
05!
b0000000000001010 =!
#1
1;
1S
#1
b0000000000000001 3
1[
1{
#2
0[
#3
#3
b0000000000000010 3
1[
#4
0[
#5
#5
b0000000000000011 3
1[
#6
0[
#7
#7
b0000000000000100 3
1[
#8
0[
#9
#9
b0000000000000101 3
1[
#10
0[
#11
#11
b0000000000000110 3
1[
#12
0[
#13
#13
b0000000000000111 3
1[
#14
0[
#15
#15
b0000000000001000 3
1[
#16
0[
#17
#17
1+
b0000000000001001 3
1[
#18
0[
#19
#19
0+
b0000000000000000 3
1[
#20
0[
#21
#21
b0000000000000001 3
1[
#22
0[
#23
#23
b0000000000000010 3
1[
#24
0[
#25
#25
b0000000000000011 3
1[
#26
0[
#27
#27
b0000000000000100 3
1[
#28
0[
#29
#29
b0000000000000101 3
1[
#30
0[
#31
#31
b0000000000000110 3
1[
#32
0[
#33
#33
b0000000000000111 3
1[
#34
0[
#35
#35
b0000000000001000 3
1[
#36
0[
#37
#37
1+
b0000000000001001 3
1[
#38
0[
#39
#39
0+
b0000000000000000 3
1[
#40
0[
#41
#41
b0000000000000001 3
1[
#42
0[
#43
#43
b0000000000000010 3
1[
#44
0[
#45
b0000000000000000 3
0;
1c
#45
1;
b01 C
1[
1s
#46
0[
#47
#47
b0000000000000001 3
1[
0{
#48
0[
#49
#49
b0000000000000010 3
1[
#50
0[
#51
#51
b0000000000000011 3
1[
#52
0[
#53
#53
b0000000000000100 3
1[
#54
0[
#55
#55
b0000000000000101 3
1[
#56
0[
#57
#57
b0000000000000110 3
1[
#58
0[
#59
#59
b0000000000000111 3
1[
#60
0[
#61
#61
b0000000000001000 3
1[
#62
0[
#63
#63
1+
b0000000000001001 3
1[
#64
0[
#65
#65
0+
b0000000000000000 3
b10 C
1[
#66
0[
#67
0c
#67
b0000000000000001 3
1[
#68
0[
#69
#69
b0000000000000010 3
1[
#70
0[
#71
#71
b0000000000000011 3
1[
#72
0[
#73
#73
b0000000000000100 3
1[
#74
0[
#75
#75
b0000000000000101 3
1[
#76
0[
#77
#77
b0000000000000110 3
1[
#78
0[
#79
#79
b0000000000000111 3
1[
#80
0[
#81
#81
b0000000000001000 3
1[
#82
0[
#83
#83
1+
b0000000000001001 3
1[
#84
0[
#85
#85
b001 #
0+
b0000000000000000 3
1[
#86
0[
#87
#87
b0000000000000001 3
1[
#88
0[
#89
#89
b0000000000000010 3
1[
#90
0[
#91
#91
b0000000000000011 3
1[
#92
0[
#93
#93
b0000000000000100 3
1[
#94
0[
#95
#95
b0000000000000101 3
1[
#96
0[
#97
#97
b0000000000000110 3
1[
#98
0[
#99
#99
b0000000000000111 3
1[
#100
0[
#101
#101
b0000000000001000 3
1[
#102
0[
#103
#103
1+
b0000000000001001 3
1[
#104
0[
#105
#105
b010 #
0+
b0000000000000000 3
1[
#106
0[
#107
#107
b0000000000000001 3
1[
#108
0[
#109
#109
b0000000000000010 3
1[
#110
0[
#111
#111
b0000000000000011 3
1[
#112
0[
#113
#113
b0000000000000100 3
1[
#114
0[
#115
#115
b0000000000000101 3
1[
#116
0[
#117
#117
b0000000000000110 3
1[
#118
0[
#119
#119
b0000000000000111 3
1[
#120
0[
#121
#121
b0000000000001000 3
1[
#122
0[
#123
#123
1+
b0000000000001001 3
1[
#124
0[
#125
#125
b011 #
0+
b0000000000000000 3
1[
#126
0[
#127
#127
b0000000000000001 3
1[
#128
0[
#129
#129
b0000000000000010 3
1[
#130
0[
#131
#131
b0000000000000011 3
1[
#132
0[
#133
#133
b0000000000000100 3
1[
#134
0[
#135
#135
b0000000000000101 3
1[
#136
0[
#137
#137
b0000000000000110 3
1[
#138
0[
#139
#139
b0000000000000111 3
1[
#140
0[
#141
#141
b0000000000001000 3
1[
#142
0[
#143
#143
1+
b0000000000001001 3
1[
#144
0[
#145
#145
b100 #
0+
b0000000000000000 3
1[
#146
0[
#147
#147
b0000000000000001 3
1[
#148
0[
#149
#149
b0000000000000010 3
1[
#150
0[
#151
#151
b0000000000000011 3
1[
#152
0[
#153
#153
b0000000000000100 3
1[
#154
0[
#155
#155
b0000000000000101 3
1[
#156
0[
#157
#157
b0000000000000110 3
1[
#158
0[
#159
#159
b0000000000000111 3
1[
#160
0[
#161
#161
b0000000000001000 3
1[
#162
0[
#163
#163
1+
b0000000000001001 3
1[
#164
0[
#165
#165
b101 #
0+
b0000000000000000 3
1[
#166
0[
#167
#167
b0000000000000001 3
1[
#168
0[
#169
#169
b0000000000000010 3
1[
#170
0[
#171
#171
b0000000000000011 3
1[
#172
0[
#173
#173
b0000000000000100 3
1[
#174
0[
#175
#175
b0000000000000101 3
1[
#176
0[
#177
#177
b0000000000000110 3
1[
#178
0[
#179
#179
b0000000000000111 3
1[
#180
0[
#181
#181
b0000000000001000 3
1[
#182
0[
#183
#183
1+
b0000000000001001 3
1[
#184
0[
#185
#185
b110 #
0+
b0000000000000000 3
1[
#186
0[
#187
#187
b0000000000000001 3
1[
#188
0[
#189
#189
b0000000000000010 3
1[
#190
0[
#191
#191
b0000000000000011 3
1[
#192
0[
#193
#193
b0000000000000100 3
1[
#194
0[
#195
#195
b0000000000000101 3
1[
#196
0[
#197
#197
b0000000000000110 3
1[
#198
0[
#199
#199
b0000000000000111 3
1[
#200
0[
#201
#201
b0000000000001000 3
1[
#202
0[
#203
#203
1+
b0000000000001001 3
1[
#204
0[
#205
#205
b111 #
0+
b0000000000000000 3
1[
#206
0[
#207
#207
b0000000000000001 3
1[
#208
0[
#209
#209
b0000000000000010 3
1[
#210
0[
#211
#211
b0000000000000011 3
1[
#212
0[
#213
#213
b0000000000000100 3
1[
#214
0[
#215
#215
b0000000000000101 3
1[
#216
0[
#217
#217
b0000000000000110 3
1[
#218
0[
#219
#219
b0000000000000111 3
1[
#220
0[
#221
#221
b0000000000001000 3
1[
#222
0[
#223
#223
1+
b0000000000001001 3
1[
#224
0[
#225
#225
0+
b0000000000000000 3
b11 C
1[
#226
0[
#227
#227
b0000000000000001 3
1[
1{
#228
0[
#229
#229
b0000000000000010 3
1[
#230
0[
#231
#231
b0000000000000011 3
1[
#232
0[
#233
#233
b0000000000000100 3
1[
#234
0[
#235
#235
b0000000000000101 3
1[
#236
0[
#237
#237
b0000000000000110 3
1[
#238
0[
#239
#239
b0000000000000111 3
1[
#240
0[
#241
#241
b0000000000001000 3
1[
#242
0[
#243
#243
1+
b0000000000001001 3
1[
#244
0[
#245
#245
0+
b0000000000000000 3
b00 C
1[
#246
0[
#247
#247
b0000000000000001 3
1[
0s
#248
0[
#249
#249
b0000000000000010 3
1[
#250
0[
#251
#251
b0000000000000011 3
1[
#252
0[
#253
#253
b0000000000000100 3
1[
#254
0[
#255
#255
b0000000000000101 3
1[
#256
0[
#257
#257
b0000000000000110 3
1[
#258
0[
#259
#259
b0000000000000111 3
1[
#260
0[
#261
#261
b0000000000001000 3
1[
#262
0[
#263
#263
1+
b0000000000001001 3
1[
#264
0[
#265
#265
0+
b0000000000000000 3
1[
#266
0[
#267
#267
b0000000000000001 3
1[
#268
0[
#269
#269
b0000000000000010 3
1[
#270
0[
#271
#271
b0000000000000011 3
1[
#272
0[
#273
#273
b0000000000000100 3
1[
#274
0[
#275
#275
b0000000000000101 3
1[
#276
0[
#277
#277
b0000000000000110 3
1[
#278
0[
#279
#279
b0000000000000111 3
1[
#280
0[
#281
#281
b0000000000001000 3
1[
#282
0[
#283
#283
1+
b0000000000001001 3
1[
#284
0[
#285
#285
0+
b0000000000000000 3
1[
#286
0[
#287
#287
b0000000000000001 3
1[
#288
0[
#289
#289
b0000000000000010 3
1[
#290
0[
#291
b0000000000000000 3
0;
1c
b00000001 k
#291
b000 #
1;
b01 C
b00000001 K
1[
1s
#292
0[
#293
#293
b0000000000000001 3
1[
0{
#294
0[
#295
#295
b0000000000000010 3
1[
#296
0[
#297
#297
b0000000000000011 3
1[
#298
0[
#299
#299
b0000000000000100 3
1[
#300
0[
#301
#301
b0000000000000101 3
1[
#302
0[
#303
#303
b0000000000000110 3
1[
#304
0[
#305
#305
b0000000000000111 3
1[
#306
0[
#307
#307
b0000000000001000 3
1[
#308
0[
#309
#309
1+
b0000000000001001 3
1[
#310
0[
#311
#311
0+
b0000000000000000 3
b10 C
1[
#312
0[
#313
0c
#313
b0000000000000001 3
1[
1{
#314
0[
#315
#315
b0000000000000010 3
1[
#316
0[
#317
#317
b0000000000000011 3
1[
#318
0[
#319
#319
b0000000000000100 3
1[
#320
0[
#321
#321
b0000000000000101 3
1[
#322
0[
#323
#323
b0000000000000110 3
1[
#324
0[
#325
#325
b0000000000000111 3
1[
#326
0[
#327
#327
b0000000000001000 3
1[
#328
0[
#329
#329
1+
b0000000000001001 3
1[
#330
0[
#331
#331
b001 #
0+
b0000000000000000 3
1[
#332
0[
#333
#333
b0000000000000001 3
1[
0{
#334
0[
#335
#335
b0000000000000010 3
1[
#336
0[
#337
#337
b0000000000000011 3
1[
#338
0[
#339
#339
b0000000000000100 3
1[
#340
0[
#341
#341
b0000000000000101 3
1[
#342
0[
#343
#343
b0000000000000110 3
1[
#344
0[
#345
#345
b0000000000000111 3
1[
#346
0[
#347
#347
b0000000000001000 3
1[
#348
0[
#349
#349
1+
b0000000000001001 3
1[
#350
0[
#351
#351
b010 #
0+
b0000000000000000 3
1[
#352
0[
#353
#353
b0000000000000001 3
1[
#354
0[
#355
#355
b0000000000000010 3
1[
#356
0[
#357
#357
b0000000000000011 3
1[
#358
0[
#359
#359
b0000000000000100 3
1[
#360
0[
#361
#361
b0000000000000101 3
1[
#362
0[
#363
#363
b0000000000000110 3
1[
#364
0[
#365
#365
b0000000000000111 3
1[
#366
0[
#367
#367
b0000000000001000 3
1[
#368
0[
#369
#369
1+
b0000000000001001 3
1[
#370
0[
#371
#371
b011 #
0+
b0000000000000000 3
1[
#372
0[
#373
#373
b0000000000000001 3
1[
#374
0[
#375
#375
b0000000000000010 3
1[
#376
0[
#377
#377
b0000000000000011 3
1[
#378
0[
#379
#379
b0000000000000100 3
1[
#380
0[
#381
#381
b0000000000000101 3
1[
#382
0[
#383
#383
b0000000000000110 3
1[
#384
0[
#385
#385
b0000000000000111 3
1[
#386
0[
#387
#387
b0000000000001000 3
1[
#388
0[
#389
#389
1+
b0000000000001001 3
1[
#390
0[
#391
#391
b100 #
0+
b0000000000000000 3
1[
#392
0[
#393
#393
b0000000000000001 3
1[
#394
0[
#395
#395
b0000000000000010 3
1[
#396
0[
#397
#397
b0000000000000011 3
1[
#398
0[
#399
#399
b0000000000000100 3
1[
#400
0[
#401
#401
b0000000000000101 3
1[
#402
0[
#403
#403
b0000000000000110 3
1[
#404
0[
#405
#405
b0000000000000111 3
1[
#406
0[
#407
#407
b0000000000001000 3
1[
#408
0[
#409
#409
1+
b0000000000001001 3
1[
#410
0[
#411
#411
b101 #
0+
b0000000000000000 3
1[
#412
0[
#413
#413
b0000000000000001 3
1[
#414
0[
#415
#415
b0000000000000010 3
1[
#416
0[
#417
#417
b0000000000000011 3
1[
#418
0[
#419
#419
b0000000000000100 3
1[
#420
0[
#421
#421
b0000000000000101 3
1[
#422
0[
#423
#423
b0000000000000110 3
1[
#424
0[
#425
#425
b0000000000000111 3
1[
#426
0[
#427
#427
b0000000000001000 3
1[
#428
0[
#429
#429
1+
b0000000000001001 3
1[
#430
0[
#431
#431
b110 #
0+
b0000000000000000 3
1[
#432
0[
#433
#433
b0000000000000001 3
1[
#434
0[
#435
#435
b0000000000000010 3
1[
#436
0[
#437
#437
b0000000000000011 3
1[
#438
0[
#439
#439
b0000000000000100 3
1[
#440
0[
#441
#441
b0000000000000101 3
1[
#442
0[
#443
#443
b0000000000000110 3
1[
#444
0[
#445
#445
b0000000000000111 3
1[
#446
0[
#447
#447
b0000000000001000 3
1[
#448
0[
#449
#449
1+
b0000000000001001 3
1[
#450
0[
#451
#451
b111 #
0+
b0000000000000000 3
1[
#452
0[
#453
#453
b0000000000000001 3
1[
#454
0[
#455
#455
b0000000000000010 3
1[
#456
0[
#457
#457
b0000000000000011 3
1[
#458
0[
#459
#459
b0000000000000100 3
1[
#460
0[
#461
#461
b0000000000000101 3
1[
#462
0[
#463
#463
b0000000000000110 3
1[
#464
0[
#465
#465
b0000000000000111 3
1[
#466
0[
#467
#467
b0000000000001000 3
1[
#468
0[
#469
#469
1+
b0000000000001001 3
1[
#470
0[
#471
#471
0+
b0000000000000000 3
b11 C
1[
#472
0[
#473
#473
b0000000000000001 3
1[
1{
#474
0[
#475
#475
b0000000000000010 3
1[
#476
0[
#477
#477
b0000000000000011 3
1[
#478
0[
#479
#479
b0000000000000100 3
1[
#480
0[
#481
#481
b0000000000000101 3
1[
#482
0[
#483
#483
b0000000000000110 3
1[
#484
0[
#485
#485
b0000000000000111 3
1[
#486
0[
#487
#487
b0000000000001000 3
1[
#488
0[
#489
#489
1+
b0000000000001001 3
1[
#490
0[
#491
#491
0+
b0000000000000000 3
b00 C
1[
#492
0[
#493
#493
b0000000000000001 3
1[
0s
#494
0[
#495
#495
b0000000000000010 3
1[
#496
0[
#497
#497
b0000000000000011 3
1[
#498
0[
#499
#499
b0000000000000100 3
1[
#500
0[
#501
#501
b0000000000000101 3
1[
#502
0[
#503
#503
b0000000000000110 3
1[
#504
0[
#505
#505
b0000000000000111 3
1[
#506
0[
#507
#507
b0000000000001000 3
1[
#508
0[
#509
#509
1+
b0000000000001001 3
1[
#510
0[
#511
#511
0+
b0000000000000000 3
1[
#512
0[
#513
#513
b0000000000000001 3
1[
#514
0[
#515
#515
b0000000000000010 3
1[
#516
0[
#517
#517
b0000000000000011 3
1[
#518
0[
#519
#519
b0000000000000100 3
1[
#520
0[
#521
#521
b0000000000000101 3
1[
#522
0[
#523
#523
b0000000000000110 3
1[
#524
0[
#525
#525
b0000000000000111 3
1[
#526
0[
#527
#527
b0000000000001000 3
1[
#528
0[
#529
#529
1+
b0000000000001001 3
1[
#530
0[
#531
#531
0+
b0000000000000000 3
1[
#532
0[
#533
#533
b0000000000000001 3
1[
#534
0[
#535
#535
b0000000000000010 3
1[
#536
0[
#537
b0000000000000000 3
0;
1c
b00000010 k
#537
b000 #
1;
b01 C
b00000010 K
1[
1s
#538
0[
#539
#539
b0000000000000001 3
1[
0{
#540
0[
#541
#541
b0000000000000010 3
1[
#542
0[
#543
#543
b0000000000000011 3
1[
#544
0[
#545
#545
b0000000000000100 3
1[
#546
0[
#547
#547
b0000000000000101 3
1[
#548
0[
#549
#549
b0000000000000110 3
1[
#550
0[
#551
#551
b0000000000000111 3
1[
#552
0[
#553
#553
b0000000000001000 3
1[
#554
0[
#555
#555
1+
b0000000000001001 3
1[
#556
0[
#557
#557
0+
b0000000000000000 3
b10 C
1[
#558
0[
#559
0c
#559
b0000000000000001 3
1[
#560
0[
#561
#561
b0000000000000010 3
1[
#562
0[
#563
#563
b0000000000000011 3
1[
#564
0[
#565
#565
b0000000000000100 3
1[
#566
0[
#567
#567
b0000000000000101 3
1[
#568
0[
#569
#569
b0000000000000110 3
1[
#570
0[
#571
#571
b0000000000000111 3
1[
#572
0[
#573
#573
b0000000000001000 3
1[
#574
0[
#575
#575
1+
b0000000000001001 3
1[
#576
0[
#577
#577
b001 #
0+
b0000000000000000 3
1[
#578
0[
#579
#579
b0000000000000001 3
1[
1{
#580
0[
#581
#581
b0000000000000010 3
1[
#582
0[
#583
#583
b0000000000000011 3
1[
#584
0[
#585
#585
b0000000000000100 3
1[
#586
0[
#587
#587
b0000000000000101 3
1[
#588
0[
#589
#589
b0000000000000110 3
1[
#590
0[
#591
#591
b0000000000000111 3
1[
#592
0[
#593
#593
b0000000000001000 3
1[
#594
0[
#595
#595
1+
b0000000000001001 3
1[
#596
0[
#597
#597
b010 #
0+
b0000000000000000 3
1[
#598
0[
#599
#599
b0000000000000001 3
1[
0{
#600
0[
#601
#601
b0000000000000010 3
1[
#602
0[
#603
#603
b0000000000000011 3
1[
#604
0[
#605
#605
b0000000000000100 3
1[
#606
0[
#607
#607
b0000000000000101 3
1[
#608
0[
#609
#609
b0000000000000110 3
1[
#610
0[
#611
#611
b0000000000000111 3
1[
#612
0[
#613
#613
b0000000000001000 3
1[
#614
0[
#615
#615
1+
b0000000000001001 3
1[
#616
0[
#617
#617
b011 #
0+
b0000000000000000 3
1[
#618
0[
#619
#619
b0000000000000001 3
1[
#620
0[
#621
#621
b0000000000000010 3
1[
#622
0[
#623
#623
b0000000000000011 3
1[
#624
0[
#625
#625
b0000000000000100 3
1[
#626
0[
#627
#627
b0000000000000101 3
1[
#628
0[
#629
#629
b0000000000000110 3
1[
#630
0[
#631
#631
b0000000000000111 3
1[
#632
0[
#633
#633
b0000000000001000 3
1[
#634
0[
#635
#635
1+
b0000000000001001 3
1[
#636
0[
#637
#637
b100 #
0+
b0000000000000000 3
1[
#638
0[
#639
#639
b0000000000000001 3
1[
#640
0[
#641
#641
b0000000000000010 3
1[
#642
0[
#643
#643
b0000000000000011 3
1[
#644
0[
#645
#645
b0000000000000100 3
1[
#646
0[
#647
#647
b0000000000000101 3
1[
#648
0[
#649
#649
b0000000000000110 3
1[
#650
0[
#651
#651
b0000000000000111 3
1[
#652
0[
#653
#653
b0000000000001000 3
1[
#654
0[
#655
#655
1+
b0000000000001001 3
1[
#656
0[
#657
#657
b101 #
0+
b0000000000000000 3
1[
#658
0[
#659
#659
b0000000000000001 3
1[
#660
0[
#661
#661
b0000000000000010 3
1[
#662
0[
#663
#663
b0000000000000011 3
1[
#664
0[
#665
#665
b0000000000000100 3
1[
#666
0[
#667
#667
b0000000000000101 3
1[
#668
0[
#669
#669
b0000000000000110 3
1[
#670
0[
#671
#671
b0000000000000111 3
1[
#672
0[
#673
#673
b0000000000001000 3
1[
#674
0[
#675
#675
1+
b0000000000001001 3
1[
#676
0[
#677
#677
b110 #
0+
b0000000000000000 3
1[
#678
0[
#679
#679
b0000000000000001 3
1[
#680
0[
#681
#681
b0000000000000010 3
1[
#682
0[
#683
#683
b0000000000000011 3
1[
#684
0[
#685
#685
b0000000000000100 3
1[
#686
0[
#687
#687
b0000000000000101 3
1[
#688
0[
#689
#689
b0000000000000110 3
1[
#690
0[
#691
#691
b0000000000000111 3
1[
#692
0[
#693
#693
b0000000000001000 3
1[
#694
0[
#695
#695
1+
b0000000000001001 3
1[
#696
0[
#697
#697
b111 #
0+
b0000000000000000 3
1[
#698
0[
#699
#699
b0000000000000001 3
1[
#700
0[
#701
#701
b0000000000000010 3
1[
#702
0[
#703
#703
b0000000000000011 3
1[
#704
0[
#705
#705
b0000000000000100 3
1[
#706
0[
#707
#707
b0000000000000101 3
1[
#708
0[
#709
#709
b0000000000000110 3
1[
#710
0[
#711
#711
b0000000000000111 3
1[
#712
0[
#713
#713
b0000000000001000 3
1[
#714
0[
#715
#715
1+
b0000000000001001 3
1[
#716
0[
#717
#717
0+
b0000000000000000 3
b11 C
1[
#718
0[
#719
#719
b0000000000000001 3
1[
1{
#720
0[
#721
#721
b0000000000000010 3
1[
#722
0[
#723
#723
b0000000000000011 3
1[
#724
0[
#725
#725
b0000000000000100 3
1[
#726
0[
#727
#727
b0000000000000101 3
1[
#728
0[
#729
#729
b0000000000000110 3
1[
#730
0[
#731
#731
b0000000000000111 3
1[
#732
0[
#733
#733
b0000000000001000 3
1[
#734
0[
#735
#735
1+
b0000000000001001 3
1[
#736
0[
#737
#737
0+
b0000000000000000 3
b00 C
1[
#738
0[
#739
#739
b0000000000000001 3
1[
0s
#740
0[
#741
#741
b0000000000000010 3
1[
#742
0[
#743
#743
b0000000000000011 3
1[
#744
0[
#745
#745
b0000000000000100 3
1[
#746
0[
#747
#747
b0000000000000101 3
1[
#748
0[
#749
#749
b0000000000000110 3
1[
#750
0[
#751
#751
b0000000000000111 3
1[
#752
0[
#753
#753
b0000000000001000 3
1[
#754
0[
#755
#755
1+
b0000000000001001 3
1[
#756
0[
#757
#757
0+
b0000000000000000 3
1[
#758
0[
#759
#759
b0000000000000001 3
1[
#760
0[
#761
#761
b0000000000000010 3
1[
#762
0[
#763
#763
b0000000000000011 3
1[
#764
0[
#765
#765
b0000000000000100 3
1[
#766
0[
#767
#767
b0000000000000101 3
1[
#768
0[
#769
#769
b0000000000000110 3
1[
#770
0[
#771
#771
b0000000000000111 3
1[
#772
0[
#773
#773
b0000000000001000 3
1[
#774
0[
#775
#775
1+
b0000000000001001 3
1[
#776
0[
#777
#777
0+
b0000000000000000 3
1[
#778
0[
#779
#779
b0000000000000001 3
1[
#780
0[
#781
#781
b0000000000000010 3
1[
#782
0[
#783
b0000000000000000 3
0;
1c
b00000011 k
#783
b000 #
1;
b01 C
b00000011 K
1[
1s
#784
0[
#785
#785
b0000000000000001 3
1[
0{
#786
0[
#787
#787
b0000000000000010 3
1[
#788
0[
#789
#789
b0000000000000011 3
1[
#790
0[
#791
#791
b0000000000000100 3
1[
#792
0[
#793
#793
b0000000000000101 3
1[
#794
0[
#795
#795
b0000000000000110 3
1[
#796
0[
#797
#797
b0000000000000111 3
1[
#798
0[
#799
#799
b0000000000001000 3
1[
#800
0[
#801
#801
1+
b0000000000001001 3
1[
#802
0[
#803
#803
0+
b0000000000000000 3
b10 C
1[
#804
0[
#805
0c
#805
b0000000000000001 3
1[
1{
#806
0[
#807
#807
b0000000000000010 3
1[
#808
0[
#809
#809
b0000000000000011 3
1[
#810
0[
#811
#811
b0000000000000100 3
1[
#812
0[
#813
#813
b0000000000000101 3
1[
#814
0[
#815
#815
b0000000000000110 3
1[
#816
0[
#817
#817
b0000000000000111 3
1[
#818
0[
#819
#819
b0000000000001000 3
1[
#820
0[
#821
#821
1+
b0000000000001001 3
1[
#822
0[
#823
#823
b001 #
0+
b0000000000000000 3
1[
#824
0[
#825
#825
b0000000000000001 3
1[
#826
0[
#827
#827
b0000000000000010 3
1[
#828
0[
#829
#829
b0000000000000011 3
1[
#830
0[
#831
#831
b0000000000000100 3
1[
#832
0[
#833
#833
b0000000000000101 3
1[
#834
0[
#835
#835
b0000000000000110 3
1[
#836
0[
#837
#837
b0000000000000111 3
1[
#838
0[
#839
#839
b0000000000001000 3
1[
#840
0[
#841
#841
1+
b0000000000001001 3
1[
#842
0[
#843
#843
b010 #
0+
b0000000000000000 3
1[
#844
0[
#845
#845
b0000000000000001 3
1[
0{
#846
0[
#847
#847
b0000000000000010 3
1[
#848
0[
#849
#849
b0000000000000011 3
1[
#850
0[
#851
#851
b0000000000000100 3
1[
#852
0[
#853
#853
b0000000000000101 3
1[
#854
0[
#855
#855
b0000000000000110 3
1[
#856
0[
#857
#857
b0000000000000111 3
1[
#858
0[
#859
#859
b0000000000001000 3
1[
#860
0[
#861
#861
1+
b0000000000001001 3
1[
#862
0[
#863
#863
b011 #
0+
b0000000000000000 3
1[
#864
0[
#865
#865
b0000000000000001 3
1[
#866
0[
#867
#867
b0000000000000010 3
1[
#868
0[
#869
#869
b0000000000000011 3
1[
#870
0[
#871
#871
b0000000000000100 3
1[
#872
0[
#873
#873
b0000000000000101 3
1[
#874
0[
#875
#875
b0000000000000110 3
1[
#876
0[
#877
#877
b0000000000000111 3
1[
#878
0[
#879
#879
b0000000000001000 3
1[
#880
0[
#881
#881
1+
b0000000000001001 3
1[
#882
0[
#883
#883
b100 #
0+
b0000000000000000 3
1[
#884
0[
#885
#885
b0000000000000001 3
1[
#886
0[
#887
#887
b0000000000000010 3
1[
#888
0[
#889
#889
b0000000000000011 3
1[
#890
0[
#891
#891
b0000000000000100 3
1[
#892
0[
#893
#893
b0000000000000101 3
1[
#894
0[
#895
#895
b0000000000000110 3
1[
#896
0[
#897
#897
b0000000000000111 3
1[
#898
0[
#899
#899
b0000000000001000 3
1[
#900
0[
#901
#901
1+
b0000000000001001 3
1[
#902
0[
#903
#903
b101 #
0+
b0000000000000000 3
1[
#904
0[
#905
#905
b0000000000000001 3
1[
#906
0[
#907
#907
b0000000000000010 3
1[
#908
0[
#909
#909
b0000000000000011 3
1[
#910
0[
#911
#911
b0000000000000100 3
1[
#912
0[
#913
#913
b0000000000000101 3
1[
#914
0[
#915
#915
b0000000000000110 3
1[
#916
0[
#917
#917
b0000000000000111 3
1[
#918
0[
#919
#919
b0000000000001000 3
1[
#920
0[
#921
#921
1+
b0000000000001001 3
1[
#922
0[
#923
#923
b110 #
0+
b0000000000000000 3
1[
#924
0[
#925
#925
b0000000000000001 3
1[
#926
0[
#927
#927
b0000000000000010 3
1[
#928
0[
#929
#929
b0000000000000011 3
1[
#930
0[
#931
#931
b0000000000000100 3
1[
#932
0[
#933
#933
b0000000000000101 3
1[
#934
0[
#935
#935
b0000000000000110 3
1[
#936
0[
#937
#937
b0000000000000111 3
1[
#938
0[
#939
#939
b0000000000001000 3
1[
#940
0[
#941
#941
1+
b0000000000001001 3
1[
#942
0[
#943
#943
b111 #
0+
b0000000000000000 3
1[
#944
0[
#945
#945
b0000000000000001 3
1[
#946
0[
#947
#947
b0000000000000010 3
1[
#948
0[
#949
#949
b0000000000000011 3
1[
#950
0[
#951
#951
b0000000000000100 3
1[
#952
0[
#953
#953
b0000000000000101 3
1[
#954
0[
#955
#955
b0000000000000110 3
1[
#956
0[
#957
#957
b0000000000000111 3
1[
#958
0[
#959
#959
b0000000000001000 3
1[
#960
0[
#961
#961
1+
b0000000000001001 3
1[
#962
0[
#963
#963
0+
b0000000000000000 3
b11 C
1[
#964
0[
#965
#965
b0000000000000001 3
1[
1{
#966
0[
#967
#967
b0000000000000010 3
1[
#968
0[
#969
#969
b0000000000000011 3
1[
#970
0[
#971
#971
b0000000000000100 3
1[
#972
0[
#973
#973
b0000000000000101 3
1[
#974
0[
#975
#975
b0000000000000110 3
1[
#976
0[
#977
#977
b0000000000000111 3
1[
#978
0[
#979
#979
b0000000000001000 3
1[
#980
0[
#981
#981
1+
b0000000000001001 3
1[
#982
0[
#983
#983
0+
b0000000000000000 3
b00 C
1[
#984
0[
#985
#985
b0000000000000001 3
1[
0s
#986
0[
#987
#987
b0000000000000010 3
1[
#988
0[
#989
#989
b0000000000000011 3
1[
#990
0[
#991
#991
b0000000000000100 3
1[
#992
0[
#993
#993
b0000000000000101 3
1[
#994
0[
#995
#995
b0000000000000110 3
1[
#996
0[
#997
#997
b0000000000000111 3
1[
#998
0[
#999
#999
b0000000000001000 3
1[
#1000
0[
#1001
#1001
1+
b0000000000001001 3
1[
#1002
0[
#1003
#1003
0+
b0000000000000000 3
1[
#1004
0[
#1005
#1005
b0000000000000001 3
1[
#1006
0[
#1007
#1007
b0000000000000010 3
1[
#1008
0[
#1009
#1009
b0000000000000011 3
1[
#1010
0[
#1011
#1011
b0000000000000100 3
1[
#1012
0[
#1013
#1013
b0000000000000101 3
1[
#1014
0[
#1015
#1015
b0000000000000110 3
1[
#1016
0[
#1017
#1017
b0000000000000111 3
1[
#1018
0[
#1019
#1019
b0000000000001000 3
1[
#1020
0[
#1021
#1021
1+
b0000000000001001 3
1[
#1022
0[
#1023
#1023
0+
b0000000000000000 3
1[
#1024
0[
#1025
#1025
b0000000000000001 3
1[
#1026
0[
#1027
#1027
b0000000000000010 3
1[
#1028
0[
#1029
b0000000000000000 3
0;
1c
b00000100 k
#1029
b000 #
1;
b01 C
b00000100 K
1[
1s
#1030
0[
#1031
#1031
b0000000000000001 3
1[
0{
#1032
0[
#1033
#1033
b0000000000000010 3
1[
#1034
0[
#1035
#1035
b0000000000000011 3
1[
#1036
0[
#1037
#1037
b0000000000000100 3
1[
#1038
0[
#1039
#1039
b0000000000000101 3
1[
#1040
0[
#1041
#1041
b0000000000000110 3
1[
#1042
0[
#1043
#1043
b0000000000000111 3
1[
#1044
0[
#1045
#1045
b0000000000001000 3
1[
#1046
0[
#1047
#1047
1+
b0000000000001001 3
1[
#1048
0[
#1049
#1049
0+
b0000000000000000 3
b10 C
1[
#1050
0[
#1051
0c
#1051
b0000000000000001 3
1[
#1052
0[
#1053
#1053
b0000000000000010 3
1[
#1054
0[
#1055
#1055
b0000000000000011 3
1[
#1056
0[
#1057
#1057
b0000000000000100 3
1[
#1058
0[
#1059
#1059
b0000000000000101 3
1[
#1060
0[
#1061
#1061
b0000000000000110 3
1[
#1062
0[
#1063
#1063
b0000000000000111 3
1[
#1064
0[
#1065
#1065
b0000000000001000 3
1[
#1066
0[
#1067
#1067
1+
b0000000000001001 3
1[
#1068
0[
#1069
#1069
b001 #
0+
b0000000000000000 3
1[
#1070
0[
#1071
#1071
b0000000000000001 3
1[
#1072
0[
#1073
